{
    "com.freedomscientific.jaws": {
        "name": "JAWS",
        "contexts": {
            "OS": [
                {
                    "id": "win32"
                }
            ]
        },
        "settingsHandlers": {
            "configuration": {
                "type": "gpii.settingsHandlers.INISettingsHandler",
                "options": {
                    "filename": "${{environment}.APPDATA}\\Freedom Scientific\\JAWS\\15.0\\Settings\\VoiceProfiles.ini"
                },
                "capabilities": [],
                "capabilitiesTransformations": {
                    "cloud4allVoiceProfile-GlobalContext\\.Punctuation": {
                        "transform": {
                            "type": "fluid.transforms.valueMapper",
                            "defaultInputPath": "http://registry\\.gpii\\.net/common/punctuationVerbosity",
                            "match": {
                                "none": 0,
                                "some": 1,
                                "most": 2,
                                "all": 3
                            }
                        }
                    },
                    "cloud4allVoiceProfile-GlobalContext\\.Speed": {
                        "transform": {
                            "type": "fluid.transforms.linearScale",
                            "inputPath": "http://registry\\.gpii\\.net/common/speechRate",
                            "factor": 0.125,
                            "offset": -12.125
                        }
                    }
                }
            }
        },
        "configure": [
            "settings.configuration"
        ],
        "restore": [
            "settings.configuration"
        ],
        "start": [
            {
                "type": "gpii.launch.exec",
                "command": "\"${{registry}.HKEY_LOCAL_MACHINE\\SOFTWARE\\Microsoft\\Windows\\CurrentVersion\\App Paths\\JAWS15.exe\\}\""
            }
        ],
        "stop": [
            {
                "type": "gpii.windows.closeProcessByName",
                "filename": "jfw.exe"
            }
        ],
        "isInstalled": [
            {
                "type": "gpii.deviceReporter.registryKeyExists",
                "hKey": "HKEY_LOCAL_MACHINE",
                "path": "Software\\Microsoft\\Windows\\CurrentVersion\\App Paths\\JAWS15.exe",
                "subPath": "",
                "dataType": "REG_SZ"
            }
        ]
    },

    "com.texthelp.readWriteGold": {
        "name": "Read Write Gold",
        "contexts": {
            "OS": [
                {
                    "id": "win32",
                    "version": ">=5.0"
                }
            ]
        },
        "settingsHandlers": {
            "configuration": {
                "type": "gpii.settingsHandlers.XMLHandler",
                "options": {
                    "filename": "${{environment}.APPDATA}\\Texthelp Systems\\ReadAndWrite\\10\\RWSettings10.xml",
                    "encoding": "utf-8",
                    "xml-tag": "<?xml version=\"1.0\" encoding=\"utf-8\"?>"
                },
                "capabilities": [
                    "http://registry\\.gpii\\.net/common/languageAssistance"
                ],
                "capabilitiesTransformations": {
                    "ApplicationSettings": "ApplicationSettings"
                }
            }
        },
        "configure": [
            "settings.configuration"
        ],
        "restore": [
            "settings.configuration"
        ],
        "start": [
            {
                "type": "gpii.launch.exec",
                "command": "echo 'kill' > ${{environment}.TEMP}\\RW8Updates.dat"
            }, {
                "type": "gpii.launch.exec",
                "command": "\"${{registry}.HKEY_CURRENT_USER\\Software\\Texthelp\\Read&Write10\\InstallPath}\\ReadAndWrite.exe\""
            }
        ],
        "stop": [
            {
                "type": "gpii.launch.exec",
                "command": "echo 'kill' > ${{environment}.TEMP}\\RW8Updates.dat"
            }
        ],
        "isInstalled": [
            {
                "type": "gpii.deviceReporter.registryKeyExists",
                "hKey": "HKEY_CURRENT_USER",
                "path": "Software\\Texthelp\\Read&Write10\\InstallPath",
                "subPath": "ReadAndWrite.exe",
                "dataType": "REG_SZ"
            }
        ]
    },

    "com.microsoft.windows.magnifier": {
        "name": "Windows Built-in Screen Magnifier",
        "contexts": {
            "OS": [
                {
                    "id": "win32",
                    "version": ">=5.0"
                }
            ]
        },
        "settingsHandlers": {
            "configure": {
                "type": "gpii.windows.registrySettingsHandler",
                "options": {
                    "hKey": "HKEY_CURRENT_USER",
                    "path": "Software\\Microsoft\\ScreenMagnifier",
                    "dataTypes": {
                        "Magnification": "REG_DWORD",
                        "Invert": "REG_DWORD",
                        "FollowFocus": "REG_DWORD",
                        "FollowCaret": "REG_DWORD",
                        "FollowMouse": "REG_DWORD",
                        "MagnificationMode": "REG_DWORD",
                        "ZoomIncrement": "REG_DWORD"
                    }
                },
                "capabilities": [],
                "capabilitiesTransformations": {
                    "Invert": {
                        "transform": {
                            "type": "gpii.transformer.booleanToNumber",
                            "inputPath": "http://registry\\.gpii\\.net/common/invertColours"
                        }
                    },
                    "Magnification": {
                        "transform": {
                            "type": "fluid.transforms.round",
                            "input": {
                                "transform": {
                                    "type": "fluid.transforms.linearScale",
                                    "inputPath": "http://registry\\.gpii\\.net/common/magnification",
                                    "factor": 100
                                }
                            }
                        }
                    },
                    "transform": [{
                        "type": "fluid.transforms.arrayToSetMembership",
                        "inputPath": "http://registry\\.gpii\\.net/common/tracking",
                        "outputPath": "",
                        "presentValue": 1,
                        "missingValue": 0,
                        "options": {
                            "focus": "FollowFocus",
                            "caret": "FollowCaret",
                            "mouse": "FollowMouse"
                        }
                    }],
                    "MagnificationMode": {
                        "transform": {
                            "type": "fluid.transforms.valueMapper",
                            "defaultInputPath": "http://registry\\.gpii\\.net/common/magnifierPosition",
                            "match": {
                                "FullScreen": 2,
                                "Lens": 3,
                                "LeftHalf": 1,
                                "RightHalf": 1,
                                "TopHalf": 1,
                                "BottomHalf": 1,
                                "Custom": 2
                            }
                        }
                    }
                }
            }
        },
        "configure": [
            "settings.configure"
        ],
        "restore": [
            "settings.configure"
        ],
        "start": [
            {
                "type": "gpii.launch.exec",
                "command": "${{environment}.SystemRoot}\\explorer.exe ${{environment}.SystemRoot}\\System32\\Magnify.exe"
            }
        ],
        "stop": [
            {
                "type": "gpii.windows.closeProcessByName",
                "filename": "Magnify.exe"
            }
        ],
        "isInstalled": [
            {
                "type": "gpii.deviceReporter.alwaysInstalled"
            }
        ]
    },

    "com.microsoft.windows.onscreenKeyboard": {
        "name": "Windows Built-in Onscreen Keyboard",
        "contexts": {
            "OS": [
                {
                    "id": "win32",
                    "version": ">=5.0"
                }
            ]
        },
        "settingsHandlers": {
            "configure": {
                "type": "gpii.settingsHandlers.noSettings",
                "capabilities": [
                    "http://registry\\.gpii\\.net/common/onScreenKeyboardEnabled"
                ]
            }
        },
        "start": [
            {
                "type": "gpii.launch.exec",
                "command": "${{environment}.SystemRoot}\\explorer.exe ${{environment}.SystemRoot}\\System32\\osk.exe"
            }
        ],
        "stop": [
            {
                "type": "gpii.windows.closeProcessByName",
                "filename": "osk.exe"
            }
        ],
        "isInstalled": [
            {
                "type": "gpii.deviceReporter.alwaysInstalled"
            }
        ]
    },

    "org.nvda-project": {
        "name": "NVDA Screen Reader",
        "contexts": {
            "OS": [
                {
                    "id": "win32",
                    "version": ">=5.0"
                }
            ]
        },
        "settingsHandlers": {
            "configs": {
                "type": "gpii.settingsHandlers.INISettingsHandler",
                "options": {
                    "filename": "${{environment}.APPDATA}\\nvda\\nvda.ini",
                    "allowNumberSignComments": true,
                    "allowSubSections": true
                },
                "capabilities": [],
                "capabilitiesTransformations": {
                    "speech\\.espeak\\.pitch": {
                        "transform": {
                            "type": "fluid.transforms.linearScale",
                            "inputPath": "http://registry\\.gpii\\.net/common/pitch",
                            "factor": 100
                        }
                    },
                    "speech\\.espeak\\.volume": {
                        "transform": {
                            "type": "fluid.transforms.linearScale",
                            "inputPath": "http://registry\\.gpii\\.net/common/volumeTTS",
                            "factor": 100
                        }
                    },
                    "presentation\\.reportHelpBalloons": "http://registry\\.gpii\\.net/common/speakTutorialMessages",
                    "keyboard\\.speakTypedCharacters": "http://registry\\.gpii\\.net/common/keyEcho",
                    "keyboard\\.speakTypedWords": "http://registry\\.gpii\\.net/common/wordEcho",
                    "speech\\.espeak\\.sayCapForCapitals": "http://registry\\.gpii\\.net/common/announceCapitals",
                    "transform": [
                        {
                            "type": "fluid.transforms.arrayToSetMembership",
                            "inputPath": "http://registry\\.gpii\\.net/common/trackingTTS",
                            "outputPath": "",
                            "presentValue": true,
                            "missingValue": false,
                            "options": {
                                "focus": "reviewCursor\\.followFocus",
                                "caret": "reviewCursor\\.followCaret",
                                "mouse": "reviewCursor\\.followMouse"
                            }
                        },
                        {
                            "type": "fluid.transforms.valueMapper",
                            "defaultInputPath": "http://registry\\.gpii\\.net/common/screenReaderTTSEnabled",
                            "match": {
                                "false": {
                                    "outputValue": {
                                        "transform": [
                                            {
                                                "type": "fluid.transforms.literalValue",
                                                "input": "silence",
                                                "outputPath": "speech\\.synth"
                                            },
                                            {
                                                "type": "fluid.transforms.literalValue",
                                                "input": "Microsoft Sound Mapper",
                                                "outputPath": "speech\\.outputDevice"
                                            }
                                        ]
                                    }
                                }
                            }
                        }
                    ],
                    "speech\\.espeak\\.rate": {
                        "transform": {
                            "type": "fluid.transforms.round",
                            "input": {
                                "transform": {
                                    "type": "fluid.transforms.binaryOp",
                                    "right": 3.10,
                                    "operator": "/",
                                    "left": {
                                        "transform": {
                                            "type": "fluid.transforms.binaryOp",
                                            "right": 80,
                                            "operator": "-",
                                            "left": {
                                                "transform": {
                                                    "type": "fluid.transforms.condition",
                                                    "truePath": "http://registry\\.gpii\\.net/common/speechRate",
                                                    "false": {
                                                        "transform": {
                                                            "type": "fluid.transforms.binaryOp",
                                                            "leftPath": "http://registry\\.gpii\\.net/common/speechRate",
                                                            "operator": "/",
                                                            "right": 3
                                                        }
                                                    },
                                                    "condition": {
                                                        "transform": {
                                                            "type": "fluid.transforms.binaryOp",
                                                            "leftPath": "http://registry\\.gpii\\.net/common/speechRate",
                                                            "operator": "<=",
                                                            "right": 390
                                                        }
                                                    }
                                                }
                                            }
                                        }
                                    }
                                }
                            }
                        }
                    },
                    "speech\\.espeak\\.rateBoost": {
                        "transform": {
                            "type": "fluid.transforms.binaryOp",
                            "leftPath": "http://registry\\.gpii\\.net/common/speechRate",
                            "operator": ">",
                            "right": 390
                        }
                    },
                    "speech\\.symbolLevel": {
                        "transform": {
                            "type": "fluid.transforms.valueMapper",
                            "defaultInputPath": "http://registry\\.gpii\\.net/common/punctuationVerbosity",
                            "match": {
                                "none": 0,
                                "some": 100,
                                "most": 200,
                                "all": 300
                            }
                        }
                    },
                    "speech\\.espeak\\.voice": {
                        "transform": {
                            "type": "fluid.transforms.valueMapper",
                            "defaultInputPath": "http://registry\\.gpii\\.net/common/auditoryOutLanguage",
                            "match": {
                                "en": "en\\en",
                                "en-GB": "en\\en",
                                "en-US": "en\\en-us",
                                "en-scotland": "en\\en-sc",
                                "en-BZ": "en\\en-wi",
                                "en-BS": "en\\en-wi",
                                "en-AG": "en\\en-wi",
                                "en-AI": "en\\en-wi",
                                "af": "af",
                                "bg": "bg",
                                "bs": "bs",
                                "ca": "ca",
                                "cs": "cs",
                                "cy": "cy",
                                "da": "da",
                                "de": "de",
                                "el": "el",
                                "grc": "test\\grc",
                                "eo": "eo",
                                "es": "es",
                                "es-ES": "es",
                                "es-419": "es-la",
                                "et": "et",
                                "fi": "fi",
                                "fr": "fr",
                                "fr-BE": "fr-be",
                                "hi": "hi",
                                "hr": "hr",
                                "hu": "hu",
                                "hy": "hy",
                                "hy-arevmda": "hy-west",
                                "id": "id",
                                "is": "is",
                                "it": "it",
                                "jbo": "test\\jbo",
                                "ka": "ka",
                                "kn": "kn",
                                "ku": "ku",
                                "la": "la",
                                "lv": "lv",
                                "mk": "mk",
                                "ml": "ml",
                                "nci": "test\\nci",
                                "nl": "nl",
                                "no": "no",
                                "pap": "test\\pap",
                                "pl": "pl",
                                "pt-BR": "pt",
                                "pt-PT": "pt-pt",
                                "ro": "ro",
                                "ru": "ru",
                                "sk": "sk",
                                "sq": "sq",
                                "sr": "sr",
                                "sv": "sv",
                                "sw": "sw",
                                "ta": "ta",
                                "tr": "tr",
                                "vi": "vi",
                                "zh-cmn": "zh",
                                "cmn": "zh",
                                "zh-yue": "zh-yue",
                                "zh-yue": "yue"
                            }
                        }
                    }
                }
            }
        },
        "configure": [
            "settings.configs"
        ],
        "restore": [
            "settings.configs"
        ],
        "start": [
            {
                "type": "gpii.launch.exec",
                "command": "\"${{registry}.HKEY_LOCAL_MACHINE\\SOFTWARE\\Microsoft\\Windows\\CurrentVersion\\App Paths\\nvda.exe\\}\""
            }
        ],
        "stop": [
            {
                "type": "gpii.windows.closeProcessByName",
                "filename": "nvda_service.exe"
            },{
                "type": "gpii.windows.closeProcessByName",
                "filename": "nvda.exe"
            }
        ],
        "isInstalled": [
            {
                "type": "gpii.deviceReporter.registryKeyExists",
                "hKey": "HKEY_LOCAL_MACHINE",
                "path": "Software\\Microsoft\\Windows\\CurrentVersion\\App Paths\\nvda.exe",
                "subPath": "",
                "dataType": "REG_SZ"
            }
        ]
    },

    "trace.easyOne.communicator.windows": {
        "name": "EasyOne Communicator Windows",
        "contexts": {
            "OS": [
                {
                    "id": "win32",
                    "version": ">=5.0"
                }
            ]
        },

        "settingsHandlers": {
            "configure": {
                "type": "gpii.settingsHandlers.noSettings",
                "capabilities": [
                    "http://registry\\.gpii\\.net/common/simplification"
                ]
            }
        },
        "start": [
            {
                "type": "gpii.launch.exec",
                "command": "\"${{registry}.HKEY_LOCAL_MACHINE\\SOFTWARE\\Microsoft\\Windows\\CurrentVersion\\App Paths\\firefox.exe\\}\" http://easy123.org/user/${{userToken}}"
            }
        ],
        "stop": [
            {
                    "type": "gpii.windows.closeProcessByName",
                    "filename": "firefox.exe"
            }
        ],
        "isInstalled": [
            {
                "type": "gpii.deviceReporter.alwaysInstalled"
            }
        ]
    },

    "trace.easyOne.sudan.windows": {
        "name": "EasyOne Communicator Sudan",
        "contexts": {
            "OS": [
                {
                    "id": "win32",
                    "version": ">=5.0"
                }
            ]
        },
        "settingsHandlers": {
            "configure": {
                "type": "gpii.settingsHandlers.noSettings",
                "capabilities": [
                    "http://registry\\.gpii\\.net/common/pictorialSimplification"
                ]
            }
        },
        "start": [
            {
                "type": "gpii.launch.exec",
                "command": "\"${{registry}.HKEY_LOCAL_MACHINE\\SOFTWARE\\Microsoft\\Windows\\CurrentVersion\\App Paths\\firefox.exe\\}\" http://easy123.org/sudan"
            }
        ],
        "stop": [
            {
                "type": "gpii.windows.closeProcessByName",
                "filename": "firefox.exe"
            }
        ],
        "isInstalled": [
            {
                "type": "gpii.deviceReporter.alwaysInstalled"
            }
        ]
    },

    "webinsight.webAnywhere.windows": {
        "name": "Web Anywhere",
        "contexts": {
            "OS": [
                {
                    "id": "win32",
                    "version": ">=5.0"
                }
            ]
        },
        "settingsHandlers": {
            "configure": {
                "type": "gpii.settingsHandlers.noSettings",
                "capabilities": [
                    "http://registry\\.gpii\\.net/common/screenReaderTTSEnabled"
                ]
            }
        },
         "start": [
            {
                "type": "gpii.launch.exec",
                "command": "\"${{registry}.HKEY_LOCAL_MACHINE\\SOFTWARE\\Microsoft\\Windows\\CurrentVersion\\App Paths\\firefox.exe\\}\" \"http://webanywhere.cs.washington.edu/beta/?starting_url=http%3A%2F%2Fcloud4all.info\""
            }
        ],
        "stop": [
            {
                "type": "gpii.windows.closeProcessByName",
                "filename": "firefox.exe"
            }
        ],
        "isInstalled": [
            {
                "type": "gpii.deviceReporter.alwaysInstalled"
            }
        ]
    },

    "net.opendirective.maavis": {
        "name": "maavis",
        "contexts": {
            "OS": [
                {
                    "id": "win32",
                    "version": ">=5.0"
                }
            ]
        },

        "settingsHandlers": {
            "configuration": {
                "type": "gpii.settingsHandlers.JSONSettingsHandler",
                "options": {
                    "filename": "${{environment}.MAAVIS_HOME}\\MaavisMedia\\Users\\Default\\userconfig.json"
                },
                "capabilities": [
                    "http://registry\\.gpii\\.net/common/selfVoicingEnabled"
                ],
                "capabilitiesTransformations": {
                    "transform": [
                        {
                            "type": "fluid.transforms.condition",
                            "conditionPath": "http://registry\\.gpii\\.net/common/selfVoicingEnabled",
                            "outputPath": "speakOnActivate",
                            "true": "yes",
                            "false": "no"
                        }, {
                            "type": "fluid.transforms.condition",
                            "conditionPath": "http://registry\\.gpii\\.net/common/selfVoicingEnabled",
                            "outputPath": "speakTitles",
                            "true": "yes",
                            "false": "no"
                        }, {
                            "type": "fluid.transforms.condition",
                            "conditionPath": "http://registry\\.gpii\\.net/common/selfVoicingEnabled",
                            "outputPath": "speakLabels",
                            "true": "yes",
                            "false": "no"
                        }, {
                            "type": "fluid.transforms.condition",
                            "conditionPath": "http://registry\\.gpii\\.net/common/highContrastEnabled",
                            "condition": false,
                            "outputPath": "theme",
                            "false": "colour",
                            "true": {
                                "transform": {
                                    "type": "fluid.transforms.valueMapper",
                                    "defaultInputPath": "http://registry\\.gpii\\.net/common/highContrastTheme",
                                    "match": {
                                        "black-white": "bw",
                                        "white-black": "bw",
                                        "black-yellow": "hc",
                                        "yellow-black": "hc"
                                    },
                                    "noMatch": {
                                        "outputValue": "bw"
                                    }
                                }
                            }
                        }
                    ]
                }
            }
        },
        "configure": [
            "settings.configuration"
        ],
        "restore": [
            "settings.configuration"
        ],
        "start": [
            {
                "type": "gpii.launch.exec",
                "command": "${{environment}.ComSpec} /c \"cd ${{environment}.MAAVIS_HOME} && MaavisPortable.cmd\""
            }
        ],
        "stop": [
            {
                "type": "gpii.windows.closeProcessByName",
                "filename": "firefox.exe"
            }
        ],
        "isInstalled": [
            {
                "type": "gpii.deviceReporter.alwaysInstalled"
            }
        ]
    },

    "com.microsoft.windows.highContrast": {
        "name": "Windows High Contrast",
        "contexts": {
            "OS": [
                {
                    "id": "win32",
                    "version": ">=5.0"
                }
            ]
        },
        "settingsHandlers": {
            "configure": {
                "type": "gpii.windows.spiSettingsHandler",
                "options": {
                    "getAction": "SPI_GETHIGHCONTRAST",
                    "setAction": "SPI_SETHIGHCONTRAST",
                    "uiParam": "struct_size",
                    "pvParam": {
                        "type": "struct",
                        "name": "HIGHCONTRAST"
                    },
                    "verifySettings": true
                },
                "capabilities": [
                    "http://registry\\.gpii\\.net/common/highContrastEnabled"
                ],
                "capabilitiesTransformations": {
                    "HighContrastOn": {
                        "transform": {
                            "type": "fluid.transforms.value",
                            "inputPath": "http://registry\\.gpii\\.net/common/highContrastEnabled",
                            "outputPath": "value"
                        },
                        "path": {
                            "transform": {
                                "type": "fluid.transforms.literalValue",
                                "input": "pvParam.dwFlags.HCF_HIGHCONTRASTON"
                            }
                        }
                    }
                }
            }
        },
        "configure": [
            "settings.configure"
        ],
        "restore": [
            "settings.configure"
        ],
        "isInstalled": [
            {
                "type": "gpii.deviceReporter.alwaysInstalled"
            }
        ]
    },

    "com.microsoft.windows.mouseTrailing": {
        "name": "Windows Mouse Trailing",
        "contexts": {
            "OS": [
                {
                    "id": "win32",
                    "version": ">=5.0"
                }
            ]
        },
        "settingsHandlers": {
            "configure": {
                "type": "gpii.windows.spiSettingsHandler",
                "options": {
                    "getAction": "SPI_GETMOUSETRAILS",
                    "setAction": "SPI_SETMOUSETRAILS",
                    "uiParam": 0,
                    "pvParam": {
                        "type": "UINT"
                    },
                    "verifySettings": true
                },
                "capabilities": [
                    "http://registry\\.gpii\\.net/common/mouseTrailing"
                ],
                "capabilitiesTransformations": {
                    "MouseTrails": {
                        "transform": {
                            "type": "fluid.transforms.value",
                            "inputPath": "http://registry\\.gpii\\.net/common/mouseTrailing",
                            "outputPath": "value"
                        },
                        "path": {
                            "transform": {
                                "type": "fluid.transforms.literalValue",
                                "input": {
                                    "get": "pvParam",
                                    "set": "uiParam"
                                }
                            }
                        }
                    }
                }
            }
        },
        "configure": [
            "settings.configure"
        ],
        "restore": [
            "settings.configure"
        ],
        "isInstalled": [
            {
                "type": "gpii.deviceReporter.alwaysInstalled"
            }
        ]
    },

    "com.microsoft.windows.cursors": {
        "name": "Windows Cursors",
        "contexts": {
            "OS": [
                {
                    "id": "win32",
                    "version": ">=5.0"
                }
            ]
        },
        "settingsHandlers": {
            "configure": {
                "type": "gpii.windows.registrySettingsHandler",
                "options": {
                    "hKey": "HKEY_CURRENT_USER",
                    "path": "Control Panel\\Cursors",
                    "dataTypes": {
                        "Arrow": "REG_SZ",
                        "Hand": "REG_SZ",
                        "Help": "REG_SZ",
                        "AppStarting": "REG_SZ",
                        "No": "REG_SZ",
                        "NWPen": "REG_SZ",
                        "SizeAll": "REG_SZ",
                        "SizeNESW": "REG_SZ",
                        "SizeNS": "REG_SZ",
                        "SizeNWSE": "REG_SZ",
                        "SizeWE": "REG_SZ",
                        "UpArrow": "REG_SZ",
                        "Wait": "REG_SZ"
                    },
                    "verifySettings": true
                },
                "capabilities": [
                    "http://registry\\.gpii\\.net/common/cursorSize"
                ],
                "capabilitiesTransformations": {
                    "Arrow": {
                        "transform": {
                            "type": "fluid.transforms.quantize",
                            "inputPath": "http://registry\\.gpii\\.net/common/cursorSize",
                            "ranges": [
                                {
                                    "upperBound": 0.333,
                                    "output": "%SystemRoot%\\cursors\\aero_arrow.cur"
                                }, {
                                    "upperBound": 0.666,
                                    "output": "%SystemRoot%\\cursors\\aero_arrow_l.cur"
                                }, {
                                    "output": "%SystemRoot%\\cursors\\aero_arrow_xl.cur"
                                }
                            ]
                        }
                    },
                    "Hand": {
                        "transform": {
                            "type": "fluid.transforms.quantize",
                            "inputPath": "http://registry\\.gpii\\.net/common/cursorSize",
                            "ranges": [
                                {
                                    "upperBound": 0.333,
                                    "output": "%SystemRoot%\\cursors\\aero_link.cur"
                                }, {
                                    "upperBound": 0.666,
                                    "output": "%SystemRoot%\\cursors\\aero_link_l.cur"
                                }, {
                                    "output": "%SystemRoot%\\cursors\\aero_link_xl.cur"
                                }
                            ]
                        }
                    },
                    "Help": {
                        "transform": {
                            "type": "fluid.transforms.quantize",
                            "inputPath": "http://registry\\.gpii\\.net/common/cursorSize",
                            "ranges": [
                                {
                                    "upperBound": 0.333,
                                    "output": "%SystemRoot%\\cursors\\aero_helpsel.cur"
                                }, {
                                    "upperBound": 0.666,
                                    "output": "%SystemRoot%\\cursors\\aero_helpsel_l.cur"
                                }, {
                                    "output": "%SystemRoot%\\cursors\\aero_helpsel_xl.cur"
                                }
                            ]
                        }
                    },
                    "AppStarting": {
                        "transform": {
                            "type": "fluid.transforms.quantize",
                            "inputPath": "http://registry\\.gpii\\.net/common/cursorSize",
                            "ranges": [
                                {
                                    "upperBound": 0.333,
                                    "output": "%SystemRoot%\\cursors\\aero_working.ani"
                                }, {
                                    "upperBound": 0.666,
                                    "output": "%SystemRoot%\\cursors\\aero_working_l.ani"
                                }, {
                                    "output": "%SystemRoot%\\cursors\\aero_working_xl.ani"
                                }
                            ]
                        }
                    },
                    "No": {
                        "transform": {
                            "type": "fluid.transforms.quantize",
                            "inputPath": "http://registry\\.gpii\\.net/common/cursorSize",
                            "ranges": [
                                {
                                    "upperBound": 0.333,
                                    "output": "%SystemRoot%\\cursors\\aero_unavail.cur"
                                }, {
                                    "upperBound": 0.666,
                                    "output": "%SystemRoot%\\cursors\\aero_unavail_l.cur"
                                }, {
                                    "output": "%SystemRoot%\\cursors\\aero_unavail_xl.cur"
                                }
                            ]
                        }
                    },
                    "NWPen": {
                        "transform": {
                            "type": "fluid.transforms.quantize",
                            "inputPath": "http://registry\\.gpii\\.net/common/cursorSize",
                            "ranges": [
                                {
                                    "upperBound": 0.333,
                                    "output": "%SystemRoot%\\cursors\\aero_pen.cur"
                                }, {
                                    "upperBound": 0.666,
                                    "output": "%SystemRoot%\\cursors\\aero_pen_l.cur"
                                }, {
                                    "output": "%SystemRoot%\\cursors\\aero_pen_xl.cur"
                                }
                            ]
                        }
                    },
                    "SizeAll": {
                        "transform": {
                            "type": "fluid.transforms.quantize",
                            "inputPath": "http://registry\\.gpii\\.net/common/cursorSize",
                            "ranges": [
                                {
                                    "upperBound": 0.333,
                                    "output": "%SystemRoot%\\cursors\\aero_move.cur"
                                }, {
                                    "upperBound": 0.666,
                                    "output": "%SystemRoot%\\cursors\\aero_move_l.cur"
                                }, {
                                    "output": "%SystemRoot%\\cursors\\aero_move_xl.cur"
                                }
                            ]
                        }
                    },
                    "SizeNESW": {
                        "transform": {
                            "type": "fluid.transforms.quantize",
                            "inputPath": "http://registry\\.gpii\\.net/common/cursorSize",
                            "ranges": [
                                {
                                    "upperBound": 0.333,
                                    "output": "%SystemRoot%\\cursors\\aero_nesw.cur"
                                }, {
                                    "upperBound": 0.666,
                                    "output": "%SystemRoot%\\cursors\\aero_nesw_l.cur"
                                }, {
                                    "output": "%SystemRoot%\\cursors\\aero_nesw_xl.cur"
                                }
                            ]
                        }
                    },
                    "SizeNS": {
                        "transform": {
                            "type": "fluid.transforms.quantize",
                            "inputPath": "http://registry\\.gpii\\.net/common/cursorSize",
                            "ranges": [
                                {
                                    "upperBound": 0.333,
                                    "output": "%SystemRoot%\\cursors\\aero_ns.cur"
                                }, {
                                    "upperBound": 0.666,
                                    "output": "%SystemRoot%\\cursors\\aero_ns_l.cur"
                                }, {
                                    "output": "%SystemRoot%\\cursors\\aero_ns_xl.cur"
                                }
                            ]
                        }
                    },
                    "SizeNWSE": {
                        "transform": {
                            "type": "fluid.transforms.quantize",
                            "inputPath": "http://registry\\.gpii\\.net/common/cursorSize",
                            "ranges": [
                                {
                                    "upperBound": 0.333,
                                    "output": "%SystemRoot%\\cursors\\aero_nwse.cur"
                                }, {
                                    "upperBound": 0.666,
                                    "output": "%SystemRoot%\\cursors\\aero_nwse_l.cur"
                                }, {
                                    "output": "%SystemRoot%\\cursors\\aero_nwse_xl.cur"
                                }
                            ]
                        }
                    },
                    "SizeWE": {
                        "transform": {
                            "type": "fluid.transforms.quantize",
                            "inputPath": "http://registry\\.gpii\\.net/common/cursorSize",
                            "ranges": [
                                {
                                    "upperBound": 0.333,
                                    "output": "%SystemRoot%\\cursors\\aero_ew.cur"
                                }, {
                                    "upperBound": 0.666,
                                    "output": "%SystemRoot%\\cursors\\aero_ew_l.cur"
                                }, {
                                    "output": "%SystemRoot%\\cursors\\aero_ew_xl.cur"
                                }
                            ]
                        }
                    },
                    "UpArrow": {
                        "transform": {
                            "type": "fluid.transforms.quantize",
                            "inputPath": "http://registry\\.gpii\\.net/common/cursorSize",
                            "ranges": [
                                {
                                    "upperBound": 0.333,
                                    "output": "%SystemRoot%\\cursors\\aero_up.cur"
                                }, {
                                    "upperBound": 0.666,
                                    "output": "%SystemRoot%\\cursors\\aero_up_l.cur"
                                }, {
                                    "output": "%SystemRoot%\\cursors\\aero_up_xl.cur"
                                }
                            ]
                        }
                    },
                    "Wait": {
                        "transform": {
                            "type": "fluid.transforms.quantize",
                            "inputPath": "http://registry\\.gpii\\.net/common/cursorSize",
                            "ranges": [
                                {
                                    "upperBound": 0.333,
                                    "output": "%SystemRoot%\\cursors\\aero_busy.ani"
                                }, {
                                    "upperBound": 0.666,
                                    "output": "%SystemRoot%\\cursors\\aero_busy_l.ani"
                                }, {
                                    "output": "%SystemRoot%\\cursors\\aero_busy_xl.ani"
                                }
                            ]
                        }
                    }
                }
            }
        },
        "configure": [
            "settings.configure"
        ],
        "restore": [
            "settings.configure"
        ],
        "start": [
            {
                "type": "gpii.windows.spiSettingsHandler.updateCursors"
            }
        ],
        "stop": [
            {
                "type": "gpii.windows.spiSettingsHandler.updateCursors"
            }
        ],
        "isInstalled": [
            {
                "type": "gpii.deviceReporter.alwaysInstalled"
            }
        ]
    },

    "eu.singularlogic.pixelsense.sociable": {
        "name": "Sociable",
        "contexts": {
            "OS": [
                {
                    "id": "win32",
                    "version": ">=5.0"
                }
            ]
        },
        "settingsHandlers": {
            "configuration": {
                "type": "gpii.settingsHandlers.XMLHandler",
                "options": {
                    "filename": "C:\\Sociable\\Configuration.xml",
                    "encoding": "utf-8",
                    "xml-tag": "<?xml version=\"1.0\"?>"
                },
                "capabilities": [],
                "capabilitiesTransformations": {
                    "user.$t": {
                        "literalValue": 1
                    },
                    "expert.$t": {
                        "literalValue": 1
                    },
                    "careCenter.$t": {
                        "literalValue": 1
                    },
                    "screenReaderTTSEnabled": {
                        "value": "http://registry\\.gpii\\.net/common/screenReaderTTSEnabled"
                    },
                    "highContrastEnabled": {
                        "value": "http://registry\\.gpii\\.net/common/highContrastEnabled"
                    },
                     "fontSize": {
                        "value": {
                            "transform": {
                                "type": "fluid.transforms.quantize",
                                "inputPath": "http://registry\\.gpii\\.net/common/fontSize",
                                "ranges": [{
                                    "upperBound": 14,
                                    "output": "normal"
                                },{
                                    "output": "large"
                                }]
                            }
                        }
                    }
                }
            }
        },
        "configure": [
            "settings.configuration"
        ],
        "restore": [
            "settings.configuration"
        ],
        "start": [
            {
                "type": "gpii.launch.exec",
                "command": "C:\\Sociable\\Cloud4All.exe"
            }
        ],
        "stop": [
            {
                "type": "gpii.launch.exec",
                "command": "C:\\Sociable\\Cloud4All.exe -stop"
            }
        ]
    },

    "com.ilunion.cloud4chrome": {
        "name": "Cloud4all Chrome extension",
        "contexts": {
            "OS": [{
                    "id": "win32",
                    "version": ">=5.0"
            }]
        },
        "settingsHandlers": {
            "chromeconf": {
                "type": "gpii.settingsHandlers.webSockets",
                "options": {
                    "path": "com.ilunion.cloud4chrome"
                },
                "capabilities": [],
                "capabilitiesTransformations": {
                    "screenReaderTTSEnabled": "http://registry\\.gpii\\.net/common/screenReaderTTSEnabled",
                    "fontSize": {
                        "transform":{
                            "type": "fluid.transforms.quantize",
                            "inputPath": "http://registry\\.gpii\\.net/common/fontSize",
                            "input": 9,
                            "ranges": [
                                {
                                    "upperBound": 12,
                                    "output": "medium"
                                },
                                {
                                    "upperBound": 18,
                                    "output": "large"
                                },
                                {
                                    "output": "x-large"
                                }
                            ]
                        }
                    },
                    "magnifierEnabled": "http://registry\\.gpii\\.net/common/magnifierEnabled",
                    "magnification": {
                        "transform": {
                            "type": "fluid.transforms.quantize",
                            "inputPath": "http://registry\\.gpii\\.net/common/magnification",
                            "input": 1,
                            "ranges": [
                                {
                                    "upperBound": 1.2,
                                    "output": 1
                                },
                                {
                                    "upperBound": 2.5,
                                    "output": 2
                                },
                                {
                                    "output": 3
                                }
                            ]
                        }
                    },
                    "highContrastEnabled": "http://registry\\.gpii\\.net/common/highContrastEnabled",
                    "highContrastTheme": "http://registry\\.gpii\\.net/common/highContrastTheme",
                    "invertColours": "http://registry\\.gpii\\.net/common/invertColours"
                }
           }
        },
        "configure": [
            "settings.chromeconf"
        ],
        "restore": [
            "settings.chromeconf"
        ],
        "start": [
        ],
        "stop": [
        ],
        "isInstalled": [
            {
                "type": "gpii.deviceReporter.alwaysInstalled"
            }
        ]
    }
}
